<?xml version="1.0" standalone="no"?>
<!DOCTYPE svg PUBLIC "-//W3C//DTD SVG 1.1//EN" "http://www.w3.org/Graphics/SVG/1.1/DTD/svg11.dtd">
<svg width="100%" height="100%" viewBox="0 0 82 54" version="1.1" xmlns="http://www.w3.org/2000/svg" xmlns:xlink="http://www.w3.org/1999/xlink" xml:space="preserve" style="fill-rule:evenodd;clip-rule:evenodd;stroke-linecap:round;stroke-linejoin:round;stroke-miterlimit:1.41421;">
    <g id="Layer1">
        <g transform="matrix(1.01818,0,0,1,-11.4364,-22.5126)">
            <path d="M79,33C79,32.204 78.69,31.441 78.137,30.879C77.584,30.316 76.835,30 76.054,30C66.507,30 36.493,30 26.946,30C26.165,30 25.416,30.316 24.863,30.879C24.31,31.441 24,32.204 24,33C24,40.731 24,61.269 24,69C24,69.796 24.31,70.559 24.863,71.121C25.416,71.684 26.165,72 26.946,72C36.493,72 66.507,72 76.054,72C76.835,72 77.584,71.684 78.137,71.121C78.69,70.559 79,69.796 79,69C79,61.269 79,40.731 79,33Z" style="fill:rgb(235,238,248);"/>
        </g>
        <g transform="matrix(0.9375,-1.53081e-17,-1.53081e-17,1,-7.38965,-22.4874)">
            <path d="M42,52C42,50.896 41.044,50 39.867,50L28.133,50C26.956,50 26,50.896 26,52L26,60C26,61.104 26.956,62 28.133,62L39.867,62C41.044,62 42,61.104 42,60L42,52Z" style="fill:rgb(213,218,231);"/>
        </g>
        <g transform="matrix(0.9375,-1.53081e-17,-1.53081e-17,1,9.11035,-22.4874)">
            <path d="M42,52C42,50.896 41.044,50 39.867,50L28.133,50C26.956,50 26,50.896 26,52L26,60C26,61.104 26.956,62 28.133,62L39.867,62C41.044,62 42,61.104 42,60L42,52Z" style="fill:rgb(213,218,231);"/>
        </g>
        <g transform="matrix(3.00183,-4.90158e-17,-6.37837e-18,0.416667,-61.0623,-1.82077)">
            <path d="M42,54.8C42,52.151 41.701,50 41.334,50L26.666,50C26.299,50 26,52.151 26,54.8L26,57.2C26,59.849 26.299,62 26.666,62L41.334,62C41.701,62 42,59.849 42,57.2L42,54.8Z" style="fill:rgb(213,218,231);"/>
        </g>
        <g transform="matrix(3.00183,-4.90158e-17,-3.03542e-18,0.198289,-61.0623,3.94824)">
            <path d="M42,56C42,52.689 41.822,50 41.604,50L26.396,50C26.178,50 26,52.689 26,56C26,59.311 26.178,62 26.396,62L41.604,62C41.822,62 42,59.311 42,56Z" style="fill:rgb(213,218,231);"/>
        </g>
        <g transform="matrix(0.9375,-1.53081e-17,-1.53081e-17,1,25.6396,-22.4874)">
            <path d="M42,52C42,50.896 41.044,50 39.867,50L28.133,50C26.956,50 26,50.896 26,52L26,60C26,61.104 26.956,62 28.133,62L39.867,62C41.044,62 42,61.104 42,60L42,52Z" style="fill:rgb(213,218,231);"/>
        </g>
    </g>
    <g transform="matrix(1,0,0,1,-5.4122,-18)">
        <g transform="matrix(-0.5,0.866025,-0.866025,-0.5,61.5151,39.6314)">
            <path d="M27.459,38.741C26.201,42.099 22.887,44.5 19,44.5C14.033,44.5 10,40.579 10,35.75C10,30.921 14.033,27 19,27C22.883,27 26.196,29.396 27.456,32.75L42,32.75L45,35.75L42,38.75L39.84,37.54L37.486,38.75L35.27,37.54L32.837,38.73L27.459,38.741ZM19,32.833C20.656,32.833 22,34.14 22,35.75C22,37.36 20.656,38.667 19,38.667C17.344,38.667 16,37.36 16,35.75C16,34.14 17.344,32.833 19,32.833Z" style="fill:rgb(128,138,158);"/>
        </g>
        <g transform="matrix(0.5,0.866025,-0.866025,0.5,44.818,4.58382)">
            <path d="M27.459,38.741C26.201,42.099 22.887,44.5 19,44.5C14.033,44.5 10,40.579 10,35.75C10,30.921 14.033,27 19,27C22.883,27 26.196,29.396 27.456,32.75L42,32.75L45,35.75L42,38.75L39.84,37.54L37.486,38.75L35.27,37.54L32.837,38.73L27.459,38.741ZM19,32.833C20.656,32.833 22,34.14 22,35.75C22,37.36 20.656,38.667 19,38.667C17.344,38.667 16,37.36 16,35.75C16,34.14 17.344,32.833 19,32.833Z" style="fill:rgb(38,45,63);"/>
        </g>
        <g transform="matrix(1,0,0,1,-3,-3.46016)">
            <path d="M17.127,33.513C17.043,33.021 17,32.516 17,32C17,27.033 21.033,23 26,23C30.967,23 35,27.033 35,32C35,36.967 30.967,41 26,41" style="fill:none;stroke-width:2px;stroke:rgb(213,33,48);"/>
        </g>
    </g>
</svg>
