<?xml version="1.0" standalone="no"?>
<!DOCTYPE svg PUBLIC "-//W3C//DTD SVG 1.1//EN" "http://www.w3.org/Graphics/SVG/1.1/DTD/svg11.dtd">
<svg width="100%" height="100%" viewBox="0 0 24 24" version="1.1" xmlns="http://www.w3.org/2000/svg" xmlns:xlink="http://www.w3.org/1999/xlink" xml:space="preserve" style="fill-rule:evenodd;clip-rule:evenodd;stroke-linejoin:round;stroke-miterlimit:1.41421;">
    <g transform="matrix(0.812045,0,0,0.812045,2.25546,2.94004)">
        <path d="M12,21.814C12,21.814 6.479,18.698 3.2,14.829C-0.016,11.033 -0.315,8.611 -0.315,7C-0.315,3.413 2.598,0.5 6.185,0.5C8.59,0.5 10.847,2.007 11.974,3.954L12,4C13.117,2.031 15.391,0.5 17.815,0.5C21.402,0.5 24.315,3.413 24.315,7C24.315,8.611 24.039,11.016 20.8,14.829C17.516,18.694 12,21.814 12,21.814Z" style="fill:rgb(192,198,208);"/>
    </g>
</svg>
