<?xml version="1.0" standalone="no"?>
<!DOCTYPE svg PUBLIC "-//W3C//DTD SVG 1.1//EN" "http://www.w3.org/Graphics/SVG/1.1/DTD/svg11.dtd">
<svg width="100%" height="100%" viewBox="0 0 40 40" version="1.1" xmlns="http://www.w3.org/2000/svg" xmlns:xlink="http://www.w3.org/1999/xlink" xml:space="preserve" style="fill-rule:evenodd;clip-rule:evenodd;stroke-linecap:round;stroke-miterlimit:1.41421;">
    <path d="M34,16L30,12L30,9L10,9L10,31L30,31L30,18" style="fill:none;stroke-width:2px;stroke:black;"/>
    <g transform="matrix(-3.82857e-16,1,-1,-3.82857e-16,51,-9)">
        <path d="M32,21L30,21C30,21 30,22.128 30,23.001C30,23.553 30.447,24 30.999,24C30.999,24 31,24 31,24C31.552,24 32,23.552 32,23C32,22.127 32,21 32,21Z" style="fill:black;"/>
    </g>
    <path d="M22,23L22,31L20,31L20,23C20,23 20,22.5 20,22C20,22 20,22 20,22L20,21.997L20,21.994L20,21.994L20,21.994L20,21.99L20,21.987L20,21.987L20,21.987L20,21.984L20,21.981L20,21.981L20,21.981L20,21.978L20,21.974L20,21.974L20,21.974L20,21.972L20.001,21.968L20.001,21.968L20.001,21.968L20.001,21.965L20.001,21.961L20.001,21.961L20.001,21.961L20.001,21.959L20.001,21.955L20.001,21.955L20.001,21.955L20.001,21.953L20.001,21.949L20.001,21.949L20.001,21.949L20.001,21.946L20.002,21.942L20.002,21.942L20.002,21.942L20.002,21.94L20.002,21.936L20.002,21.936L20.002,21.936L20.002,21.934L20.002,21.929L20.002,21.929L20.002,21.929L20.003,21.927L20.003,21.923L20.003,21.923L20.003,21.923L20.003,21.921L20.003,21.917L20.003,21.917L20.003,21.917L20.004,21.915L20.004,21.91L20.004,21.91L20.004,21.91L20.004,21.908L20.005,21.904L20.005,21.904L20.005,21.904L20.005,21.902L20.005,21.898L20.005,21.898L20.005,21.898L20.005,21.896L20.006,21.891L20.006,21.891L20.006,21.891L20.006,21.89L20.007,21.885L20.007,21.885L20.007,21.885L20.007,21.883L20.007,21.879L20.007,21.879L20.007,21.879L20.007,21.877L20.008,21.873L20.008,21.873L20.008,21.873L20.008,21.871L20.009,21.866L20.009,21.866L20.009,21.866L20.009,21.865L20.01,21.86L20.01,21.86L20.01,21.86L20.01,21.858L20.011,21.854L20.011,21.854L20.011,21.854L20.011,21.852L20.012,21.848L20.012,21.848L20.012,21.848L20.012,21.846L20.012,21.842L20.012,21.842L20.012,21.841L20.013,21.84L20.013,21.835L20.013,21.835L20.013,21.835L20.014,21.834L20.015,21.829L20.015,21.829L20.015,21.829L20.015,21.827L20.016,21.823L20.016,21.823L20.016,21.823L20.016,21.821L20.017,21.817L20.017,21.817L20.017,21.817L20.017,21.815L20.018,21.811L20.018,21.811L20.018,21.811L20.018,21.809L20.019,21.805L20.019,21.805L20.019,21.805L20.019,21.803L20.02,21.798L20.02,21.798L20.02,21.798L20.021,21.797L20.022,21.792L20.022,21.792L20.022,21.792L20.022,21.791L20.023,21.786L20.023,21.786L20.023,21.786L20.023,21.785L20.024,21.78L20.024,21.78L20.024,21.78L20.025,21.778L20.026,21.774L20.026,21.774L20.026,21.774L20.026,21.772L20.027,21.768L20.027,21.768L20.027,21.768L20.027,21.766L20.028,21.762L20.028,21.762L20.028,21.762L20.029,21.76L20.03,21.756L20.03,21.756L20.03,21.756L20.03,21.754L20.031,21.75L20.031,21.75L20.031,21.75L20.032,21.748L20.033,21.744L20.033,21.744L20.033,21.744L20.034,21.742L20.035,21.738L20.035,21.738L20.035,21.738L20.035,21.736L20.036,21.732L20.036,21.732L20.036,21.732L20.037,21.73L20.038,21.726L20.038,21.726L20.038,21.726L20.039,21.724L20.04,21.72L20.04,21.72L20.04,21.72L20.04,21.718L20.041,21.714L20.041,21.714L20.041,21.714L20.042,21.712L20.043,21.709L20.043,21.709L20.043,21.708L20.044,21.706L20.045,21.703L20.045,21.703L20.045,21.703L20.046,21.7L20.047,21.697L20.047,21.697L20.047,21.697L20.048,21.695L20.049,21.691L20.049,21.691L20.049,21.691L20.049,21.689L20.051,21.685L20.051,21.685L20.051,21.685L20.051,21.683L20.053,21.679L20.053,21.679L20.053,21.679L20.053,21.677L20.055,21.673L20.055,21.673L20.055,21.673L20.055,21.671L20.057,21.668L20.057,21.668L20.057,21.668L20.057,21.665L20.059,21.662L20.059,21.662L20.059,21.662L20.059,21.659L20.061,21.656L20.061,21.656L20.061,21.656L20.062,21.654L20.063,21.65L20.063,21.65L20.063,21.65L20.064,21.648L20.065,21.645L20.065,21.645L20.065,21.645L20.066,21.642L20.067,21.639L20.067,21.639L20.067,21.639L20.068,21.636L20.069,21.633L20.069,21.633L20.069,21.633L20.07,21.631L20.072,21.628L20.072,21.628L20.072,21.628L20.073,21.625L20.074,21.622L20.074,21.622L20.074,21.622L20.075,21.619L20.076,21.616L20.076,21.616L20.076,21.616L20.077,21.614L20.079,21.611L20.079,21.611L20.079,21.611L20.08,21.608L20.081,21.605L20.081,21.605L20.081,21.605L20.082,21.602L20.083,21.6L20.083,21.6L20.083,21.6L20.085,21.597L20.086,21.594L20.086,21.594L20.086,21.594L20.087,21.591L20.088,21.588L20.088,21.588L20.088,21.588L20.09,21.586L20.091,21.583L20.091,21.583L20.091,21.583L20.092,21.58L20.093,21.577L20.093,21.577L20.093,21.577L20.095,21.574L20.096,21.572L20.096,21.572L20.096,21.572L20.097,21.569L20.099,21.566L20.099,21.566L20.099,21.566L20.1,21.563L20.101,21.561L20.101,21.561L20.101,21.561L20.103,21.558L20.104,21.556L20.104,21.556L20.104,21.556L20.105,21.553L20.107,21.55L20.107,21.55L20.107,21.55L20.108,21.547L20.109,21.545L20.109,21.545L20.109,21.545L20.111,21.542L20.112,21.539L20.112,21.539L20.112,21.539L20.114,21.536L20.115,21.534L20.115,21.534L20.115,21.534L20.117,21.531L20.118,21.529L20.118,21.529L20.118,21.529L20.12,21.526L20.121,21.523L20.121,21.523L20.121,21.523L20.122,21.52L20.124,21.518L20.124,21.518L20.124,21.518L20.125,21.515L20.127,21.513L20.127,21.513L20.127,21.513L20.128,21.51L20.129,21.507L20.129,21.507L20.129,21.507L20.131,21.504L20.132,21.502L20.132,21.502L20.132,21.502L20.134,21.499L20.136,21.497L20.136,21.497L20.136,21.497L20.137,21.494L20.139,21.492L20.139,21.492L20.139,21.492L20.14,21.489L20.142,21.487L20.142,21.487L20.142,21.487L20.144,21.483L20.145,21.481L20.145,21.481L20.145,21.481L20.147,21.478L20.148,21.476L20.148,21.476L20.148,21.476L20.15,21.473L20.151,21.471L20.151,21.471L20.151,21.471L20.153,21.468L20.154,21.466L20.154,21.466L20.154,21.466L20.156,21.463L20.158,21.461L20.158,21.461L20.158,21.461L20.16,21.458L20.161,21.456L20.161,21.456L20.161,21.456L20.163,21.453L20.164,21.451L20.164,21.451L20.164,21.451L20.166,21.448L20.167,21.446L20.167,21.446L20.167,21.446L20.17,21.443L20.171,21.441L20.171,21.441L20.171,21.441L20.173,21.438L20.174,21.436L20.174,21.436L20.174,21.436L20.176,21.433L20.178,21.431L20.178,21.431L20.178,21.431L20.18,21.428L20.181,21.426L20.181,21.426L20.181,21.426L20.183,21.423L20.184,21.421L20.184,21.421L20.184,21.421L20.187,21.418L20.188,21.416L20.188,21.416L20.188,21.416L20.19,21.413L20.192,21.411L20.192,21.411L20.192,21.411L20.194,21.408L20.195,21.407L20.195,21.407L20.195,21.407L20.197,21.404L20.199,21.402L20.199,21.402L20.199,21.402L20.201,21.399L20.202,21.397L20.202,21.397L20.202,21.397L20.204,21.394L20.206,21.392L20.206,21.392L20.206,21.392L20.208,21.389L20.21,21.387L20.21,21.387L20.21,21.387L20.212,21.385L20.213,21.383L20.213,21.383L20.213,21.383L20.216,21.38L20.217,21.378L20.217,21.378L20.217,21.378L20.219,21.375L20.221,21.373L20.221,21.373L20.221,21.373L20.223,21.37L20.225,21.369L20.225,21.369L20.225,21.369L20.227,21.366L20.228,21.364L20.228,21.364L20.228,21.364L20.231,21.361L20.232,21.359L20.232,21.359L20.232,21.359L20.234,21.357L20.236,21.355L20.236,21.355L20.236,21.355L20.238,21.352L20.24,21.35L20.24,21.35L20.24,21.35L20.242,21.348L20.244,21.346L20.244,21.346L20.244,21.346L20.246,21.343L20.248,21.341L20.248,21.341L20.248,21.341L20.25,21.339L20.252,21.337L20.252,21.337L20.252,21.337L20.254,21.334L20.256,21.332L20.256,21.332L20.256,21.332L20.258,21.33L20.26,21.328L20.26,21.328L20.26,21.328L20.262,21.325L20.264,21.323L20.264,21.323L20.264,21.323L20.266,21.321L20.268,21.319L20.268,21.319L20.268,21.319L20.27,21.316L20.272,21.314L20.272,21.314L20.272,21.314L20.274,21.312L20.276,21.31L20.276,21.31L20.276,21.31L20.278,21.308L20.28,21.306L20.28,21.306L20.28,21.306L20.282,21.304L20.284,21.301L20.284,21.301L20.284,21.301L20.287,21.299L20.289,21.297L20.289,21.297L20.289,21.297L20.291,21.295L20.293,21.293L20.293,21.293L20.293,21.293L20.295,21.291L20.297,21.289L20.297,21.289L20.297,21.289L20.299,21.287L20.301,21.284L20.301,21.284L20.301,21.284L20.304,21.282L20.306,21.28L20.306,21.28L20.306,21.28L20.308,21.278L20.31,21.276L20.31,21.276L20.31,21.276L20.312,21.274L20.314,21.272L20.314,21.272L20.314,21.272L20.316,21.27L20.319,21.268L20.319,21.268L20.319,21.268L20.321,21.266L20.323,21.264L20.323,21.264L20.323,21.264L20.325,21.262L20.328,21.26L20.328,21.26L20.328,21.26L20.33,21.258L20.332,21.256L20.332,21.256L20.332,21.256L20.334,21.254L20.337,21.252L20.337,21.252L20.337,21.252L20.338,21.25L20.341,21.248L20.341,21.248L20.341,21.248L20.343,21.246L20.346,21.244L20.346,21.244L20.346,21.244L20.347,21.242L20.35,21.24L20.35,21.24L20.35,21.24L20.352,21.238L20.355,21.236L20.355,21.236L20.355,21.236L20.357,21.234L20.359,21.232L20.359,21.232L20.359,21.232L20.361,21.231L20.364,21.228L20.364,21.228L20.364,21.228L20.366,21.227L20.369,21.225L20.369,21.225L20.369,21.225L20.37,21.223L20.373,21.221L20.373,21.221L20.373,21.221L20.375,21.219L20.378,21.217L20.378,21.217L20.378,21.217L20.38,21.216L20.383,21.213L20.383,21.213L20.383,21.213L20.384,21.212L20.387,21.21L20.387,21.21L20.387,21.21L20.389,21.208L20.392,21.206L20.392,21.206L20.392,21.206L20.394,21.205L20.397,21.202L20.397,21.202L20.397,21.202L20.399,21.201L20.402,21.199L20.402,21.199L20.402,21.199L20.403,21.197L20.407,21.195L20.407,21.195L20.407,21.195L20.408,21.194L20.411,21.192L20.411,21.192L20.411,21.192L20.413,21.19L20.416,21.188L20.416,21.188L20.416,21.188L20.418,21.187L20.421,21.184L20.421,21.184L20.421,21.184L20.423,21.183L20.426,21.181L20.426,21.181L20.426,21.181L20.428,21.18L20.431,21.178L20.431,21.178L20.431,21.178L20.433,21.176L20.436,21.174L20.436,21.174L20.436,21.174L20.437,21.173L20.441,21.171L20.441,21.171L20.441,21.171L20.442,21.17L20.446,21.167L20.446,21.167L20.446,21.167L20.447,21.166L20.451,21.164L20.451,21.164L20.451,21.164L20.452,21.163L20.456,21.161L20.456,21.161L20.456,21.161L20.457,21.16L20.461,21.158L20.461,21.158L20.461,21.158L20.463,21.157L20.466,21.154L20.466,21.154L20.466,21.154L20.468,21.153L20.471,21.151L20.471,21.151L20.471,21.151L20.473,21.15L20.476,21.148L20.476,21.148L20.476,21.148L20.478,21.147L20.481,21.145L20.481,21.145L20.481,21.145L20.483,21.144L20.487,21.142L20.487,21.142L20.487,21.142L20.488,21.141L20.492,21.139L20.492,21.139L20.492,21.139L20.493,21.138L20.497,21.136L20.497,21.136L20.497,21.136L20.499,21.135L20.502,21.132L20.502,21.132L20.502,21.132L20.504,21.132L20.507,21.129L20.507,21.129L20.507,21.129L20.509,21.129L20.513,21.127L20.513,21.127L20.513,21.127L20.514,21.126L20.518,21.124L20.518,21.124L20.518,21.124L20.52,21.123L20.523,21.121L20.523,21.121L20.523,21.121L20.525,21.12L20.529,21.118L20.529,21.118L20.529,21.118L20.53,21.117L20.534,21.115L20.534,21.115L20.534,21.115L20.536,21.114L20.539,21.112L20.539,21.112L20.539,21.112L20.541,21.111L20.545,21.109L20.545,21.109L20.545,21.109L20.546,21.109L20.55,21.107L20.55,21.107L20.55,21.107L20.552,21.106L20.556,21.104L20.556,21.104L20.556,21.104L20.557,21.103L20.561,21.101L20.561,21.101L20.561,21.101L20.563,21.1L20.566,21.099L20.566,21.099L20.566,21.099L20.568,21.098L20.572,21.096L20.572,21.096L20.572,21.096L20.574,21.095L20.577,21.093L20.577,21.093L20.577,21.093L20.579,21.093L20.583,21.091L20.583,21.091L20.583,21.091L20.585,21.09L20.588,21.088L20.588,21.088L20.588,21.088L20.59,21.088L20.594,21.086L20.594,21.086L20.594,21.086L20.596,21.085L20.6,21.083L20.6,21.083L20.6,21.083L20.601,21.083L20.605,21.081L20.605,21.081L20.605,21.081L20.607,21.08L20.611,21.079L20.611,21.079L20.611,21.079L20.613,21.078L20.616,21.076L20.616,21.076L20.616,21.076L20.618,21.075L20.622,21.074L20.622,21.074L20.622,21.074L20.624,21.073L20.628,21.072L20.628,21.072L20.628,21.072L20.63,21.071L20.633,21.069L20.633,21.069L20.633,21.069L20.635,21.069L20.639,21.067L20.639,21.067L20.639,21.067L20.641,21.066L20.645,21.065L20.645,21.065L20.645,21.065L20.647,21.064L20.65,21.063L20.65,21.063L20.65,21.063L20.653,21.062L20.656,21.061L20.656,21.061L20.656,21.061L20.658,21.06L20.662,21.059L20.662,21.059L20.662,21.059L20.664,21.058L20.668,21.057L20.668,21.057L20.668,21.057L20.67,21.056L20.673,21.055L20.673,21.055L20.673,21.055L20.676,21.054L20.679,21.053L20.679,21.053L20.679,21.053L20.682,21.052L20.685,21.051L20.685,21.051L20.685,21.051L20.688,21.05L20.691,21.049L20.691,21.049L20.691,21.049L20.693,21.048L20.697,21.047L20.697,21.047L20.697,21.047L20.699,21.046L20.703,21.045L20.703,21.045L20.703,21.045L20.705,21.044L20.709,21.043L20.709,21.043L20.709,21.043L20.711,21.042L20.714,21.041L20.714,21.041L20.714,21.041L20.717,21.041L20.72,21.04L20.72,21.04L20.72,21.04L20.723,21.039L20.726,21.038L20.726,21.038L20.726,21.038L20.729,21.037L20.732,21.036L20.732,21.036L20.732,21.036L20.735,21.035L20.738,21.035L20.738,21.035L20.738,21.035L20.741,21.034L20.744,21.033L20.744,21.033L20.744,21.033L20.747,21.032L20.75,21.031L20.75,21.031L20.75,21.031L20.753,21.031L20.756,21.03L20.756,21.03L20.756,21.03L20.759,21.029L20.762,21.028L20.762,21.028L20.762,21.028L20.765,21.028L20.768,21.027L20.768,21.027L20.768,21.027L20.771,21.026L20.774,21.026L20.774,21.026L20.774,21.026L20.778,21.025L20.78,21.024L20.78,21.024L20.78,21.024L20.784,21.023L20.786,21.023L20.786,21.023L20.786,21.023L20.79,21.022L20.792,21.022L20.792,21.022L20.792,21.022L20.796,21.021L20.798,21.02L20.798,21.02L20.798,21.02L20.802,21.02L20.805,21.019L20.805,21.019L20.805,21.019L20.808,21.018L20.811,21.018L20.811,21.018L20.814,21.017L20.817,21.017L20.817,21.017L20.821,21.016L20.823,21.016L20.823,21.016L20.827,21.015L20.829,21.015L20.829,21.015L20.833,21.014L20.835,21.013L20.835,21.013L20.839,21.013L20.842,21.012L20.842,21.012L20.845,21.012L20.848,21.012L20.848,21.012L20.852,21.011L20.854,21.011L20.854,21.011L20.858,21.01L20.86,21.01L20.86,21.01L20.864,21.009L20.866,21.009L20.866,21.009L20.87,21.008L20.873,21.008L20.873,21.008L20.877,21.008L20.879,21.007L20.879,21.007L20.883,21.007L20.885,21.007L20.885,21.007L20.889,21.006L20.891,21.006L20.891,21.006L20.896,21.005L20.898,21.005L20.898,21.005L20.902,21.005L20.904,21.005L20.904,21.005L20.908,21.004L20.91,21.004L20.91,21.004L20.915,21.004L20.917,21.003L20.917,21.003L20.921,21.003L20.923,21.003L20.923,21.003L20.927,21.003L20.929,21.002L20.929,21.002L20.933,21.002L20.936,21.002L20.936,21.002L20.94,21.002L20.942,21.002L20.942,21.002L20.946,21.001L20.949,21.001L20.949,21.001L20.952,21.001L20.955,21.001L20.955,21.001L20.959,21.001L20.961,21.001L20.961,21.001L20.965,21.001L20.968,21.001L20.968,21.001L20.971,21L20.974,21L20.974,21L20.978,21L20.981,21L20.981,21L20.984,21L20.987,21L20.987,21L20.99,21L20.994,21L20.994,21L20.997,21L21,21L23,21C23.552,21 24,21.448 24,22C24,22 24,22.001 24,22.001C24,22.266 23.895,22.52 23.707,22.707C23.52,22.895 23.266,23 23.001,23L22,23Z" style="fill:black;"/>
    <path d="M18,15L18,9L20,9C20,9 20,13.854 20,16C20,16.552 19.552,17 19,17C18.5,17 18,17 18,17C18,17 15,17 15,17C14.735,17 14.48,16.895 14.293,16.707C14.105,16.52 14,16.265 14,16C14,15.735 14.105,15.48 14.293,15.293C14.48,15.105 14.735,15 15,15L18,15Z" style="fill:black;"/>
</svg>
