<?xml version="1.0" standalone="no"?>
<!DOCTYPE svg PUBLIC "-//W3C//DTD SVG 1.1//EN" "http://www.w3.org/Graphics/SVG/1.1/DTD/svg11.dtd">
<svg width="100%" height="100%" viewBox="0 0 367 100" version="1.1" xmlns="http://www.w3.org/2000/svg" xmlns:xlink="http://www.w3.org/1999/xlink" xml:space="preserve" style="fill-rule:evenodd;clip-rule:evenodd;stroke-linejoin:round;stroke-miterlimit:1.41421;">
    <g transform="matrix(1,-2.47629e-19,-2.47629e-19,1.00101,1.41148e-20,-0.0570576)">
        <path d="M45.354,58.449C47.159,58.849 48.443,60.449 48.443,62.298C48.5,72.103 48.5,99.956 48.5,99.956C33.058,99.524 19.358,92.046 10.525,80.596C10.525,80.596 28.087,63.034 34.583,56.538C35.911,55.21 37.984,54.985 39.567,55.997C41.309,57.133 43.265,57.954 45.354,58.449Z" style="fill:rgb(18,87,235);"/>
        <path d="M51.5,99.956C51.5,99.956 51.5,72.103 51.5,62.298C51.5,60.423 52.803,58.8 54.634,58.394C56.735,57.954 58.691,57.133 60.463,56.044C62.023,55.046 64.068,55.268 65.377,56.577C71.913,63.034 89.475,80.596 89.475,80.596C80.642,92.046 66.942,99.524 51.5,99.956Z" style="fill:rgb(18,87,235);"/>
        <path d="M26.702,40.5C28.577,40.5 30.2,41.803 30.606,43.634C31.046,45.735 31.867,47.691 32.956,49.463C33.954,51.023 33.732,53.068 32.423,54.377C26.02,60.859 8.71,78.169 8.71,78.169C3.21,70.148 0,60.446 0,50C0,46.758 0.309,43.588 0.919,40.5C0.919,40.5 19.033,40.5 26.702,40.5Z" style="fill:rgb(18,87,235);"/>
        <path d="M30.551,34.354C30.151,36.159 28.551,37.443 26.702,37.443C19.167,37.5 1.597,37.5 1.597,37.5C4.391,26.619 10.767,17.188 19.404,10.525C19.404,10.525 28.132,19.253 32.462,23.583C33.79,24.911 34.015,26.984 33.003,28.567C31.867,30.309 31.046,32.265 30.551,34.354Z" style="fill:rgb(18,87,235);"/>
        <path d="M99.081,40.5C99.691,43.588 100,46.758 100,50C100,60.446 96.79,70.148 91.29,78.169C91.29,78.169 73.98,60.859 67.538,54.417C66.21,53.089 65.985,51.016 66.997,49.433C68.133,47.691 68.954,45.735 69.449,43.646C69.849,41.841 71.449,40.557 73.298,40.557C80.967,40.5 99.081,40.5 99.081,40.5Z" style="fill:rgb(18,87,235);"/>
        <path d="M98.403,37.5C98.403,37.5 80.833,37.5 73.298,37.5C71.423,37.5 69.8,36.197 69.394,34.366C68.954,32.265 68.133,30.309 67.044,28.537C66.046,26.977 66.268,24.932 67.577,23.623C71.868,19.253 80.596,10.525 80.596,10.525C89.233,17.188 95.609,26.619 98.403,37.5Z" style="fill:rgb(18,87,235);"/>
        <path d="M51.5,0.057C61.353,0.306 70.525,3.468 78.169,8.71C78.169,8.71 69.677,17.202 65.417,21.462C64.089,22.79 62.016,23.015 60.433,22.003C58.691,20.867 56.735,20.046 54.646,19.551C52.841,19.151 51.557,17.551 51.557,15.702C51.5,10.242 51.5,0.057 51.5,0.057Z" style="fill:rgb(18,87,235);"/>
        <path d="M48.5,15.702C48.5,17.577 47.197,19.2 45.366,19.606C43.265,20.046 41.309,20.867 39.537,21.956C37.977,22.954 35.932,22.732 34.623,21.423C30.323,17.202 21.831,8.71 21.831,8.71C29.475,3.468 38.647,0.306 48.5,0.057C48.5,0.057 48.5,10.242 48.5,15.702Z" style="fill:rgb(34,173,90);"/>
    </g>
    <path d="M143,37L143,71L135,71L135,37L120,37L120,29L158,29L158,37L143,37Z" style="fill:rgb(37,42,48);"/>
    <g transform="matrix(1,0,0,1,209,0)">
        <path d="M143,37L143,71L135,71L135,37L120,37L120,29L158,29L158,37L143,37Z" style="fill:rgb(37,42,48);"/>
    </g>
    <path d="M256,54L256,71L248,71L248,29L256,29L256,46L276,46L276,29L284,29L284,71L276,71L276,54L256,54Z" style="fill:rgb(37,42,48);"/>
    <path d="M179,29C190.59,29 200,38.41 200,50C200,61.59 190.59,71 179,71C167.41,71 158,61.59 158,50C158,38.41 167.41,29 179,29ZM179,37C186.175,37 192,42.825 192,50C192,57.175 186.175,63 179,63C171.825,63 166,57.175 166,50C166,42.825 171.825,37 179,37Z" style="fill:rgb(37,42,48);"/>
    <g transform="matrix(1,0,0,1,45,0)">
        <path d="M179,29C190.59,29 200,38.41 200,50C200,61.59 190.59,71 179,71C167.41,71 158,61.59 158,50C158,38.41 167.41,29 179,29ZM179,37C186.175,37 192,42.825 192,50C192,57.175 186.175,63 179,63C171.825,63 166,57.175 166,50C166,42.825 171.825,37 179,37Z" style="fill:rgb(37,42,48);"/>
    </g>
    <g transform="matrix(1,0,0,1,129,0)">
        <path d="M179,29C190.59,29 200,38.41 200,50C200,61.59 190.59,71 179,71C167.41,71 158,61.59 158,50C158,38.41 167.41,29 179,29ZM179,37C186.175,37 192,42.825 192,50C192,57.175 186.175,63 179,63C171.825,63 166,57.175 166,50C166,42.825 171.825,37 179,37Z" style="fill:rgb(37,42,48);"/>
    </g>
</svg>
