<?xml version="1.0" standalone="no"?>
<!DOCTYPE svg PUBLIC "-//W3C//DTD SVG 1.1//EN" "http://www.w3.org/Graphics/SVG/1.1/DTD/svg11.dtd">
<svg width="100%" height="100%" viewBox="0 0 672 320" version="1.1" xmlns="http://www.w3.org/2000/svg" xmlns:xlink="http://www.w3.org/1999/xlink" xml:space="preserve" style="fill-rule:evenodd;clip-rule:evenodd;stroke-linejoin:round;stroke-miterlimit:1.41421;">
    <g id="Layer1">
        <g transform="matrix(0.686695,-4.9617e-18,-5.7546e-18,0.819926,-35.7082,-66.414)">
            <rect x="52" y="81" width="466" height="323" style="fill:rgb(213,33,48);"/>
        </g>
        <g transform="matrix(1,0,0,1,-65,-58.1638)">
            <g transform="matrix(0.927835,6.92351e-17,6.92351e-17,0.645161,-5.15464,77.1935)">
                <rect x="275" y="226" width="97" height="31" style="fill:white;"/>
            </g>
            <g transform="matrix(1,-1.7264e-14,1.7264e-14,1,92,-77)">
                <path d="M245.418,352.418C234.557,363.279 219.557,370 203,370C169.885,370 143,343.115 143,310C143,276.885 169.885,250 203,250C236.115,250 263,276.885 263,310L233,310C233,293.443 219.557,280 203,280C186.443,280 173,293.443 173,310C173,326.557 186.443,340 203,340C211.279,340 218.779,336.639 224.209,331.209L245.418,352.418Z" style="fill:white;"/>
            </g>
            <path d="M354.118,243L323.216,243C324.396,239.881 325,236.51 325,233C325,227.545 323.541,222.428 321,218L353,218C354.338,222.758 355,227.802 355,233C355,236.416 354.714,239.766 354.118,243Z" style="fill:white;"/>
        </g>
        <g transform="matrix(1,-6.71685e-15,6.71685e-15,1,-410,-115.164)">
            <g transform="matrix(1,-2.13718e-14,2.13718e-14,1,297,-20)">
                <path d="M203,250C236.115,250 263,276.885 263,310C263,343.115 236.115,370 203,370C169.885,370 143,343.115 143,310C143,276.885 169.885,250 203,250ZM203,280C219.557,280 233,293.443 233,310C233,326.557 219.557,340 203,340C186.443,340 173,326.557 173,310C173,293.443 186.443,280 203,280Z" style="fill:white;"/>
            </g>
            <g transform="matrix(1,0,0,1.27136,1.13687e-12,-78.6934)">
                <path d="M440,176.077L470,199.674L470,290L440,290L440,176.077Z" style="fill:white;"/>
            </g>
        </g>
        <g transform="matrix(1.00159,-2.58702e-32,-3.44936e-32,1.00159,37.2375,108.958)">
            <g transform="matrix(1,6.71685e-15,6.71685e-15,-1,-137.719,355.87)">
                <g transform="matrix(1,-2.13718e-14,2.13718e-14,1,297,-20)">
                    <path d="M203,250C236.115,250 263,276.885 263,310C263,343.115 236.115,370 203,370C169.885,370 143,343.115 143,310C143,276.885 169.885,250 203,250ZM203,280C219.557,280 233,293.443 233,310C233,326.557 219.557,340 203,340C186.443,340 173,326.557 173,310C173,293.443 186.443,280 203,280Z" style="fill:black;"/>
                </g>
                <g transform="matrix(1,0,0,1.27136,1.13687e-12,-78.6934)">
                    <path d="M440,176.077L470,199.674L470,337.194L440,337.194L440,176.077Z" style="fill:black;"/>
                </g>
            </g>
            <g transform="matrix(1,0,0,-1,-347.719,355.87)">
                <g transform="matrix(1,0,0,1,340,60)">
                    <rect x="440" y="170" width="30" height="120" style="fill:black;"/>
                </g>
                <g transform="matrix(1,7.15003e-14,-7.15003e-14,1,637,-20)">
                    <path d="M173,310L143,310C143.057,343.172 169.92,370 203,370C213.91,370 224.143,367.082 232.972,361.914L217.986,335.957C213.61,338.53 208.475,340 203,340C186.484,340 173.067,326.624 173,310Z" style="fill:black;"/>
                </g>
            </g>
            <g transform="matrix(1,2.13718e-14,2.13718e-14,-1,370.457,375.87)">
                <path d="M203,250C236.115,250 263,276.885 263,310C263,343.115 236.115,370 203,370C169.885,370 143,343.115 143,310C143,276.885 169.885,250 203,250ZM203,280C219.557,280 233,293.443 233,310C233,326.557 219.557,340 203,340C186.443,340 173,326.557 173,310C173,293.443 186.443,280 203,280Z" style="fill:black;"/>
            </g>
        </g>
    </g>
</svg>
